hello/MainRepository.class
hello/Greeting.class
hello/AccessingDataJpaApplication.class
hello/MainService.class
hello/Posts.class
hello/MainController.class
hello/WebConfig.class
hello/GreetingController.class
